<?xml version="1.0" encoding="utf-8"?>
<!-- Generator: Adobe Illustrator 18.1.0, SVG Export Plug-In . SVG Version: 6.00 Build 0)  -->
<svg xmlns="http://www.w3.org/2000/svg" xmlns:xlink="http://www.w3.org/1999/xlink" version="1.1" id="Layer_1" x="0px" y="0px" viewBox="-399 797 928 1000" enable-background="new -399 797 928 1000" xml:space="preserve">
<path fill="#FFFFFF" d="M65,962.5c-92,0-170.7,32.5-236,97.5s-98,144-98,237s32.7,172,98,237s144,97.5,236,97.5  s170.8-32.5,236.5-97.5s98.5-144,98.5-237s-32.8-172-98.5-237S157,962.5,65,962.5z M65.5,850.5c123,0,228.2,43.7,315.5,131  S512,1174,512,1297s-43.7,228.2-131,315.5s-192.5,131-315.5,131s-228.2-43.7-315.5-131S-381,1420-381,1297s43.7-228.2,131-315.5  S-57.5,850.5,65.5,850.5z M217,1368.5l-80,80l-109-111c-12.7-11.3-19-25-19-41v-223h113v199L217,1368.5z"/>
</svg>
